<svg xmlns="http://www.w3.org/2000/svg" width="80" height="56.25" viewBox="0 0 80 56.25">
  <defs>
    <style>
      .cls-1 {
        fill: #0b3757;
        fill-rule: evenodd;
      }
    </style>
  </defs>
  <path id="right-arrow-primary" class="cls-1" d="M1122.37,4172.72a2.836,2.836,0,0,0-4.03,3.99l20.44,20.44h-67.46a2.845,2.845,0,0,0,0,5.69h67.46l-20.44,20.41a2.892,2.892,0,0,0,0,4.03,2.819,2.819,0,0,0,4.03,0l25.28-25.28a2.772,2.772,0,0,0,0-3.99Z" transform="translate(-1068.5 -4171.88)"/>
</svg>
