<svg xmlns="http://www.w3.org/2000/svg" xmlns:xlink="http://www.w3.org/1999/xlink" width="196" height="77" viewBox="0 0 196 77">
  <defs>
    <clipPath id="clip-path">
      <rect id="Image_9" data-name="Image 9" width="196" height="77" fill="#141414"/>
    </clipPath>
  </defs>
  <g id="Group_20" data-name="Group 20" transform="translate(-766 -3222)">
    <g id="Group_172" data-name="Group 172" transform="translate(766 3222)">
      <g id="Mask_Group_8" data-name="Mask Group 8" clip-path="url(#clip-path)">
        <path id="Tele2_logo" d="M1.478,27.7V38.389l28.773-3.171V23.654L1.478,27.7M10.66,39.039V75.653H21.194V37.961L10.66,39.039M34.137,23.107V75.653h11.1V21.544l-11.1,1.563M47.3,21.252V33.34l16.028-1.767V19L47.3,21.252m0,21.085V54.645l10.522-.575V41.43L47.3,42.337m0,21.18V75.653H63.333V63.032L47.3,63.516m57.479-50.375V75.653h14.551V11.093l-14.551,2.049m17.268-2.432V25.089l21.206-2.336V7.723L122.052,10.71m0,25.193V50.548l13.9-.76V34.71l-13.9,1.192m0,25.35v14.4h21.206V60.612l-21.206.641M67.574,18.4V75.653H80.218V16.617L67.574,18.4m15,44.052v13.2h18.354V61.9l-18.354.555M190.8,7.017C186.2,2.664,179.458.878,172.082,1.94V17.888c2.987-.166,5.407.944,6.485,3.18,1.7,3.525-.054,8.813-4.2,13.713-6.4,7.561-23.4,23.037-23.4,23.037l24.415-.8c14.918-14.6,20.275-23.463,21.237-34.524A18.931,18.931,0,0,0,190.8,7.017m6.679,68.637V58.966L147.957,60.46m0,0,.005,15.193h49.516M169.236,2.3C154.849,5.367,147.785,15.97,148.6,33.271l15.339-1.364c-.7-9.774,2.286-12.093,5.3-13.368L169.236,2.3" transform="translate(-1.478 -0.147)" fill="#141414"/>
      </g>
    </g>
  </g>
</svg>
