<svg xmlns="http://www.w3.org/2000/svg" width="142" height="124" viewBox="0 0 142 124">
  <g id="Group_2516" data-name="Group 2516" transform="translate(-1171.2 -3343)">
    <g id="Vodafone_2017_logo_1_" data-name="Vodafone_2017_logo (1)" transform="translate(1171.2 3343)">
      <g id="Group_178" data-name="Group 178" transform="translate(0 97.945)">
        <g id="Group_177" data-name="Group 177">
          <path id="Path_125" data-name="Path 125" d="M4.953,50.18,9.7,62.2,14.292,50.18h4.747L11.686,68.29H7.61L0,50.18Z" transform="translate(0 -42.725)" fill="#f91600"/>
          <path id="Path_126" data-name="Path 126" d="M10.375,54.332a7.632,7.632,0,0,1,3.276-3.354,9.339,9.339,0,0,1,4.2-1.006,7.958,7.958,0,0,1,5.134,1.651,7.735,7.735,0,0,1,2.786,3.844,13.549,13.549,0,0,1,.748,3.947,11.008,11.008,0,0,1-1.238,5.134,7.721,7.721,0,0,1-2.451,2.889A7.908,7.908,0,0,1,20,68.752a13.47,13.47,0,0,1-2.141.258,8.492,8.492,0,0,1-3.818-.826,8.064,8.064,0,0,1-2.709-2.193A9.355,9.355,0,0,1,9.7,62.948a11.419,11.419,0,0,1-.542-3.483A10.924,10.924,0,0,1,10.375,54.332Zm3.637,7.223a5.744,5.744,0,0,0,.774,1.754,3.787,3.787,0,0,0,1.29,1.187,3.639,3.639,0,0,0,1.78.439h.232a2.8,2.8,0,0,0,1.806-.568,5.3,5.3,0,0,0,1.29-1.548,6.973,6.973,0,0,0,.671-1.857,7.5,7.5,0,0,0,.129-1.187,1.586,1.586,0,0,0-.026-.361,6.446,6.446,0,0,0-.851-3.431A3.993,3.993,0,0,0,19.3,54.229a3.312,3.312,0,0,0-1.367-.31h-.1A3.453,3.453,0,0,0,15.2,55.054a4.945,4.945,0,0,0-1.161,2.09,8.741,8.741,0,0,0-.31,2.27A8.252,8.252,0,0,0,14.012,61.555Z" transform="translate(10.159 -42.955)" fill="#f91600"/>
          <path id="Path_127" data-name="Path 127" d="M19.644,57.75a6.6,6.6,0,0,1,2.4-2.76,9.122,9.122,0,0,1,2.889-1.316,8.443,8.443,0,0,1,2.012-.284H27.1a10.861,10.861,0,0,1,3.1.542V46.889h4.618V71.964H30.556l-.181-1.393a5.861,5.861,0,0,1-1.7,1.264,5.314,5.314,0,0,1-2.477.542,6.59,6.59,0,0,1-3.3-.8,7.559,7.559,0,0,1-2.4-2.115,9.813,9.813,0,0,1-1.47-3.044,12.864,12.864,0,0,1-.516-3.612A10.232,10.232,0,0,1,19.644,57.75Zm3.637,7.12a5.435,5.435,0,0,0,.748,1.806,3.941,3.941,0,0,0,1.29,1.238,3.515,3.515,0,0,0,1.832.464,3.8,3.8,0,0,0,1.754-.464A3.091,3.091,0,0,0,30.2,66.8V57.853a7.564,7.564,0,0,0-2.528-.542,4.121,4.121,0,0,0-3.147,1.264,4.834,4.834,0,0,0-1.367,2.451A8.13,8.13,0,0,0,23,62.393a.967.967,0,0,0,.026.284A8.658,8.658,0,0,0,23.282,64.87Z" transform="translate(20.35 -46.373)" fill="#f91600"/>
          <path id="Path_128" data-name="Path 128" d="M28.109,60.679a5.734,5.734,0,0,1,1.625-1.806,8.154,8.154,0,0,1,2.141-1.135,10.685,10.685,0,0,1,2.09-.516c.361-.052,1.6-.206,3.766-.464V56.5a2.608,2.608,0,0,0-.774-2.141,3.312,3.312,0,0,0-2.141-.645,6.108,6.108,0,0,0-2.606.593,8.98,8.98,0,0,0-1.883,1.135L28.78,52.166a7.6,7.6,0,0,1,2.941-1.5,12.683,12.683,0,0,1,3.87-.722,7.693,7.693,0,0,1,3.018.542A5.751,5.751,0,0,1,41.988,54.2a9.117,9.117,0,0,1,.387,2.683v11.66H38.067l-.181-1.367A5.468,5.468,0,0,1,35.978,68.5a6.823,6.823,0,0,1-2.554.49,6.371,6.371,0,0,1-2.219-.387A5.953,5.953,0,0,1,29.3,67.464a5.6,5.6,0,0,1-1.341-1.806,5.538,5.538,0,0,1,.155-4.979Zm4.592,3.9a2.875,2.875,0,0,0,1.883.542,4.225,4.225,0,0,0,1.754-.387,4.857,4.857,0,0,0,1.445-.954V60.086c-1.522.181-2.554.31-3.044.387A3.462,3.462,0,0,0,32.65,61.5a2.561,2.561,0,0,0-.593,1.6A1.687,1.687,0,0,0,32.7,64.574Z" transform="translate(30.173 -42.982)" fill="#f91600"/>
          <path id="Path_129" data-name="Path 129" d="M35.708,54.1h2.4v-.98a7.167,7.167,0,0,1,1.083-4.179,4.15,4.15,0,0,1,2.477-1.909,11.491,11.491,0,0,1,2.4-.387,10.726,10.726,0,0,1,2.812.31,7.738,7.738,0,0,1,1.316.439l-.542,3.87a5.975,5.975,0,0,0-.877-.31,6.4,6.4,0,0,0-1.754-.206,2.359,2.359,0,0,0-1.625.568,2.409,2.409,0,0,0-.671,1.909v.851h3.921v3.766h-3.87V72.21H38.107V57.841h-2.4V54.1Z" transform="translate(39.272 -46.645)" fill="#f91600"/>
          <path id="Path_130" data-name="Path 130" d="M42.523,54.332A7.632,7.632,0,0,1,45.8,50.978,9.339,9.339,0,0,1,50,49.972a7.958,7.958,0,0,1,5.134,1.651,7.735,7.735,0,0,1,2.786,3.844,13.549,13.549,0,0,1,.748,3.947,11.008,11.008,0,0,1-1.238,5.134,7.721,7.721,0,0,1-2.451,2.889,7.909,7.909,0,0,1-2.838,1.316A13.47,13.47,0,0,1,50,69.01a8.492,8.492,0,0,1-3.818-.826,8.064,8.064,0,0,1-2.709-2.193,9.355,9.355,0,0,1-1.625-3.044,11.419,11.419,0,0,1-.542-3.483A11.241,11.241,0,0,1,42.523,54.332Zm3.663,7.223a5.744,5.744,0,0,0,.774,1.754A3.786,3.786,0,0,0,48.25,64.5a3.639,3.639,0,0,0,1.78.439h.232a2.8,2.8,0,0,0,1.806-.568,5.3,5.3,0,0,0,1.29-1.548,6.182,6.182,0,0,0,.671-1.857,7.5,7.5,0,0,0,.129-1.187,1.586,1.586,0,0,0-.026-.361,6.446,6.446,0,0,0-.851-3.431,3.993,3.993,0,0,0-1.806-1.754,3.312,3.312,0,0,0-1.367-.31H50a3.453,3.453,0,0,0-2.631,1.135,4.945,4.945,0,0,0-1.161,2.09,8.741,8.741,0,0,0-.31,2.27A8.252,8.252,0,0,0,46.187,61.555Z" transform="translate(45.42 -42.955)" fill="#f91600"/>
          <path id="Path_131" data-name="Path 131" d="M50.855,50.411h4.231l.232,1.445a8.507,8.507,0,0,1,2.451-1.393,7.994,7.994,0,0,1,2.76-.49,6.811,6.811,0,0,1,3.715.98,5.176,5.176,0,0,1,2.167,2.889,12.84,12.84,0,0,1,.619,4V68.572H62.361V58.227a5.191,5.191,0,0,0-.851-3.2,2.862,2.862,0,0,0-2.425-1.135,3.714,3.714,0,0,0-2.012.568,9.025,9.025,0,0,0-1.6,1.238V68.546H50.8V50.411Z" transform="translate(55.777 -42.955)" fill="#f91600"/>
          <path id="Path_132" data-name="Path 132" d="M60.466,55.429a8.327,8.327,0,0,1,1.806-2.967,8.083,8.083,0,0,1,5.933-2.5,7.356,7.356,0,0,1,4.979,1.677,7.556,7.556,0,0,1,2.5,4,16.7,16.7,0,0,1,.568,4.179v.826H64.516a4.359,4.359,0,0,0,1.419,3.3,5.193,5.193,0,0,0,3.3,1.006,7.969,7.969,0,0,0,3.147-.568,5.758,5.758,0,0,0,1.857-1.058l1.238,3.792a5.285,5.285,0,0,1-1.574.851,11.9,11.9,0,0,1-2.219.568,14.266,14.266,0,0,1-3.1.387,9.891,9.891,0,0,1-3.379-.568A7.41,7.41,0,0,1,62.4,66.6a8.658,8.658,0,0,1-1.909-2.941,11.534,11.534,0,0,1-.7-4.231A12.019,12.019,0,0,1,60.466,55.429Zm11.041,1.883a3.679,3.679,0,0,0-.9-2.373,3.411,3.411,0,0,0-1.5-1.032,4.559,4.559,0,0,0-.954-.206,3.6,3.6,0,0,0-2.3.9,3.854,3.854,0,0,0-1.264,2.709Z" transform="translate(65.746 -42.969)" fill="#f91600"/>
        </g>
      </g>
      <path id="Path_133" data-name="Path 133" d="M75.9,4.282c-8,1.135-14.188,8.59-14.343,17.671,11.067,2.038,19.425,9.468,19.425,22.727,0,12.8-10.628,23.14-23.914,23.14C43.863,67.846,33.157,56.238,33.157,41.2c0-20.741,18.419-37.948,41.714-37.406a44.053,44.053,0,1,0,1.032.49Z" transform="translate(14.797 0)" fill="#f91600"/>
    </g>
  </g>
</svg>
