<svg id="layer1" xmlns="http://www.w3.org/2000/svg" width="163" height="67" viewBox="0 0 163 67">
  <path id="path2440" d="M23.284,0a26.809,26.809,0,0,0-7.13.829C4.87,3.655-7.762,18.2,6.031,34.962l8.233,9.983,2.324,2.841a4.145,4.145,0,0,0,5.987.276,4.194,4.194,0,0,0,.867-6s-.659-.8-.945-1.144h.039c-.6-.717-.724-.837-1.339-1.578-2.979-3.59-6.381-7.734-6.381-7.734C8.826,24.327,11.5,15.332,19.621,10.222c7.157-4.5,20.289-2.895,24.816,4.5C41.586,6.291,33.279.229,23.284,0Zm1.654,17.6a4.7,4.7,0,0,0-3.112,1.144,4.193,4.193,0,0,0-.867,6s.191.238.512.631c3.57,4.3,8.311,10.062,8.311,10.062,5.991,7.281,3.317,16.236-4.806,21.346-7.155,4.5-20.289,2.89-24.816-4.5C3.671,62.653,15.431,69.432,28.444,66.173c11.288-2.828,23.917-17.328,10.123-34.091L28.917,20.4l-1.1-1.381A3.873,3.873,0,0,0,24.938,17.6Z" transform="translate(0.006 0.004)" fill="#007cc2"/>
  <path id="path2448" d="M49.05,4.737C41.9,4.737,33.727,8.423,33.727,17.3c0,8.453,6.723,10.826,13.393,12.447,6.75,1.621,13.432,2.56,13.432,8.193,0,5.549-5.716,6.578-9.926,6.578-5.557,0-10.793-2.021-11.029-8.508H32.861c.394,10.927,8.16,14.929,17.371,14.929,8.34,0,17.489-3.4,17.489-13.9,0-8.538-6.684-10.943-13.432-12.566C48.018,22.851,40.857,22,40.857,16.791c0-4.44,4.7-5.633,8.745-5.633,4.449,0,9.054,1.769,9.533,7.405H65.87C65.315,7.8,58.1,4.737,49.05,4.737Zm38.918,0c-9.134,0-17.017,3.845-17.411,14.772h6.736c.318-6.489,4.525-8.351,10.242-8.351,4.291,0,9.139,1.008,9.139,7.327,0,5.464-6.321,4.962-13.787,6.5-6.985,1.451-13.9,3.6-13.9,13.59,0,8.8,6.123,12.369,13.59,12.369a17.642,17.642,0,0,0,14.417-6.854c0,4.779,2.256,6.854,5.751,6.854a8.468,8.468,0,0,0,4.806-1.221V44.088a5.39,5.39,0,0,1-2.048.433c-2.143,0-2.127-1.506-2.127-4.924V16.869C103.37,6.54,95.353,4.737,87.968,4.737Zm35.294,0c-7.145,0-15.323,3.685-15.323,12.566,0,8.453,6.764,10.826,13.432,12.447,6.751,1.621,13.433,2.56,13.433,8.193,0,5.549-5.719,6.578-9.926,6.578-5.56,0-10.794-2.021-11.029-8.508h-6.776c.4,10.927,8.2,14.929,17.411,14.929,8.336,0,17.45-3.4,17.45-13.9,0-8.538-6.684-10.943-13.432-12.566-6.27-1.621-13.393-2.474-13.393-7.681,0-4.44,4.655-5.633,8.705-5.633,4.445,0,9.052,1.769,9.532,7.405h6.775C139.568,7.8,132.317,4.737,123.262,4.737ZM96.595,27.111v7.445c0,4.013-3.632,9.966-12.526,9.966-4.125,0-7.957-1.716-7.957-6.5,0-5.378,3.829-7.064,8.272-7.918C88.91,29.252,93.976,29.159,96.595,27.111ZM29.749,46.452a2.6,2.6,0,1,0,0,5.2,2.6,2.6,0,1,0,0-5.2Zm112.106,0a2.6,2.6,0,1,0,2.64,2.6A2.6,2.6,0,0,0,141.854,46.452Zm-112.106.433a2.167,2.167,0,1,1-2.127,2.167A2.1,2.1,0,0,1,29.749,46.885Zm112.106,0a2.167,2.167,0,0,1,0,4.333,2.168,2.168,0,0,1,0-4.333Zm-113.13.67v2.994H29.2v-1.3h.512l.788,1.3h.512l-.867-1.339c.444-.05.788-.251.788-.788,0-.593-.351-.867-1.064-.867Zm112.145,0v2.994h.434v-1.3h.551l.788,1.3h.513l-.867-1.339c.436-.049.788-.251.788-.788,0-.593-.357-.867-1.064-.867ZM29.2,47.949h.63c.312,0,.63.061.63.433,0,.457-.32.473-.709.473H29.2Zm112.106,0h.63c.318,0,.669.06.669.433,0,.457-.362.473-.749.473H141.3Z" transform="translate(18.506 3.226)"/>
</svg>
